<svg xmlns="http://www.w3.org/2000/svg" width="218" height="218" viewBox="0 0 218 218">
  <g id="グループ_82" data-name="グループ 82" transform="translate(-1044 -1815)">
    <path id="パス_13538" data-name="パス 13538" d="M109,0A109,109,0,1,1,0,109,109,109,0,0,1,109,0Z" transform="translate(1044 1815)" fill="#ffdf89"/>
    <g id="グループ_25" data-name="グループ 25" transform="translate(1094.601 1866.144)">
      <path id="パス_15" data-name="パス 15" d="M3051.831,1715.276l-46.583-46.487a4.579,4.579,0,0,0-3.271-1.364h-30.012l-28.065-28.006a11.029,11.029,0,0,0-15.309,15.856c.179.193.372.372.566.565l11.61,11.586h-49.642a4.637,4.637,0,0,0-4.624,4.615V1720.7a16.079,16.079,0,0,0,3.12,9.573l3.589,3.583,68.346,68.213A106.93,106.93,0,0,0,3051.831,1715.276Z" transform="translate(-2886.5 -1636.65)" fill="#eaa048"/>
      <g id="グループ_36" data-name="グループ 36">
        <g id="グループ_31" data-name="グループ 31" transform="translate(0 30.783)">
          <path id="パス_16" data-name="パス 16" d="M3006.6,1663.6a4.622,4.622,0,0,0-4.619-4.609H2891.119a4.62,4.62,0,0,0-4.619,4.609v48.654a4.62,4.62,0,0,0,4.619,4.61h110.859a4.622,4.622,0,0,0,4.619-4.61Z" transform="translate(-2886.5 -1658.994)" fill="#525d6a"/>
          <path id="パス_17" data-name="パス 17" d="M2998.421,1702.11a6.615,6.615,0,0,0-6.622,6.609h-94.033a6.618,6.618,0,0,0-6.624-6.609v-31.867a6.616,6.616,0,0,0,6.624-6.605H2991.8a6.613,6.613,0,0,0,6.622,6.605Z" transform="translate(-2884.733 -1657.241)" fill="#f6e28f"/>
          <g id="グループ_30" data-name="グループ 30" transform="translate(21.115 11.221)">
            <g id="グループ_29" data-name="グループ 29">
              <path id="パス_18" data-name="パス 18" d="M2934.893,1702.57a17.715,17.715,0,1,1,17.746-17.715A17.753,17.753,0,0,1,2934.893,1702.57Zm0-31.384a13.67,13.67,0,1,0,13.7,13.669A13.7,13.7,0,0,0,2934.893,1671.186Z" transform="translate(-2895.957 -1667.14)" fill="#d6ad03"/>
              <g id="グループ_25-2" data-name="グループ 25" transform="translate(30.778 5.485)">
                <path id="パス_19" data-name="パス 19" d="M2934.083,1684.929h-3.677a6.306,6.306,0,1,1,0-12.611h3.68v4.046h-3.68a2.263,2.263,0,0,0-1.606.669,2.259,2.259,0,0,0,1.606,3.85h3.677Z" transform="translate(-2924.093 -1670.671)" fill="#d6ad03"/>
                <path id="パス_20" data-name="パス 20" d="M2937.65,1678.621H2933.6a2.26,2.26,0,0,0-2.264-2.258v-4.046a6.308,6.308,0,0,1,6.318,6.3Z" transform="translate(-2921.338 -1670.671)" fill="#d6ad03"/>
                <path id="パス_21" data-name="パス 21" d="M2930.409,1689.41a6.3,6.3,0,0,1-6.316-6.3h4.055a2.255,2.255,0,0,0,2.261,2.256Z" transform="translate(-2924.093 -1666.597)" fill="#d6ad03"/>
                <path id="パス_22" data-name="パス 22" d="M2932.343,1691.136h-3.675v-4.046h3.675a2.266,2.266,0,0,0,2.267-2.256,2.258,2.258,0,0,0-2.267-2.254v-4.046a6.3,6.3,0,1,1,0,12.6Z" transform="translate(-2922.352 -1668.323)" fill="#d6ad03"/>
                <rect id="長方形_54" data-name="長方形 54" width="4.055" height="24.459" transform="translate(6.123)" fill="#d6ad03"/>
              </g>
              <g id="グループ_26" data-name="グループ 26" transform="translate(0 15.693)">
                <rect id="長方形_55" data-name="長方形 55" width="23.235" height="4.047" transform="translate(54.633)" fill="#d6ad03"/>
                <rect id="長方形_56" data-name="長方形 56" width="23.21" height="4.047" fill="#d6ad03"/>
              </g>
              <g id="グループ_27" data-name="グループ 27" transform="translate(13.998 7.132)">
                <rect id="長方形_57" data-name="長方形 57" width="11.761" height="4.045" transform="translate(38.111)" fill="#d6ad03"/>
                <rect id="長方形_58" data-name="長方形 58" width="11.761" height="4.045" fill="#d6ad03"/>
              </g>
              <g id="グループ_28" data-name="グループ 28" transform="translate(13.998 24.253)">
                <rect id="長方形_59" data-name="長方形 59" width="12.296" height="4.045" transform="translate(37.576)" fill="#d6ad03"/>
                <rect id="長方形_60" data-name="長方形 60" width="11.763" height="4.045" fill="#d6ad03"/>
              </g>
            </g>
          </g>
        </g>
        <g id="グループ_35" data-name="グループ 35">
          <g id="グループ_32" data-name="グループ 32" transform="translate(0 67.724)">
            <path id="パス_23" data-name="パス 23" d="M2919.188,1702.132a16.344,16.344,0,1,1-16.341-16.321A16.317,16.317,0,0,1,2919.188,1702.132Z" transform="translate(-2886.5 -1685.811)" fill="#fece66"/>
            <path id="パス_24" data-name="パス 24" d="M2913.2,1700.849a11.652,11.652,0,1,1-11.651-11.639A11.635,11.635,0,0,1,2913.2,1700.849Z" transform="translate(-2885.207 -1684.528)" fill="#f5b540"/>
          </g>
          <g id="グループ_33" data-name="グループ 33" transform="translate(39.031)">
            <path id="パス_25" data-name="パス 25" d="M2936.862,1647.679a11.044,11.044,0,1,1-11.041-11.032A11.026,11.026,0,0,1,2936.862,1647.679Z" transform="translate(-2914.775 -1636.648)" fill="#fece66"/>
            <path id="パス_26" data-name="パス 26" d="M2932.819,1646.813a7.874,7.874,0,1,1-7.871-7.868A7.863,7.863,0,0,1,2932.819,1646.813Z" transform="translate(-2913.901 -1635.781)" fill="#f5b540"/>
          </g>
          <g id="グループ_34" data-name="グループ 34" transform="translate(63.789 23.814)">
            <path id="パス_27" data-name="パス 27" d="M2947.894,1661.52a7.592,7.592,0,1,1-7.589-7.585A7.578,7.578,0,0,1,2947.894,1661.52Z" transform="translate(-2932.71 -1653.935)" fill="#fece66"/>
            <path id="パス_28" data-name="パス 28" d="M2945.117,1660.924a5.413,5.413,0,1,1-5.413-5.409A5.408,5.408,0,0,1,2945.117,1660.924Z" transform="translate(-2932.109 -1653.339)" fill="#f5b540"/>
          </g>
        </g>
      </g>
    </g>
  </g>
</svg>
